0.89184	0.50031	20
0.89184	0.49556	3
0.89184	0.49498	1
0.89184	0.49493	1
0.89184	0.49493	1
0.87339	0.48973	72
0.87339	0.47553	11
0.87339	0.4742	5
0.87339	0.47426	7
0.87339	0.47431	6
0.56463	0.41484	671
0.56463	0.22966	180
0.56463	0.18408	88
0.56463	0.16404	40
0.56463	0.16117	35
0.44674	0.15894	244
0.44674	0.14113	152
0.44674	0.13897	145
0.44674	0.1393	144
0.44674	0.13891	143
0.38643	0.1388	195
0.38643	0.13609	173
0.38643	0.13576	171
0.38643	0.13596	171
0.38643	0.13596	172
